questions_coding;questions;order;part;removed
q1;Timestamp;1;NA;Removed
q2;In which part of the world in the below list do you live in? Note that we are well aware that all regional categories are typically imperfect and inaccurate! Please select what comes the closest. (optional);2;demographics;Available
q3;What age bracket are you in? This can be useful for to better understand the dynamics of different demographics. (optional);3;demographics;Available
q4;What size organization do you work for? (optional);4;demographics;Available
q5;How would you describe your occupation?;5;demographics;Available
q6;Does the COVID19 pandemic impact your level or quality of employment in any way? (optional);6;demographics;Available
q7;About Working from Home... (optional);7;demographics;Available
q8;We assume that you are at least using Linux as a Gaming environment, even if only a little. What are your other gaming platforms, if any?;8;gaming in general;Available
q9;What are your favorite genres of games? It's difficult to be exhaustive so if you feel there is something missing feel free to add an extra genre.;9;gaming in general;Available
q10;"How much time do you spend gaming per week, on average? Please answer in ""hours"" combined across all platforms you game on. Example answer: ""5"" would mean 5 hours (no need to include the unit).";10;gaming in general;Available
q11;Has the COVID19 pandemic changed anything about your gaming habits?;11;gaming in general;Available
q12;How would you characterize the amount of gaming you do on Linux?;12;gaming in general;Available
q13;How would you describe how much gaming you'd like to do on Linux, ideally? Which of the below statements is the closest to your thinking?;13;gaming in general;Available
q14;Since when did you start playing games on Linux on a regular basis?;14;gaming in general;Available
q15;How many machines do you have set up specifically for Linux gaming in your place?;15;linux gaming: hardware;Available
q16;Are using a laptop, desktop, or something else as your primary Linux gaming machine?;16;linux gaming: hardware;Available
q17;What is your primary Linux gaming machine's native resolution, whether on a laptop or an external monitor?;17;linux gaming: hardware;Available
q18;What is your display's refresh rate?;18;linux gaming: hardware;Available
q19;Is your display device for your primary Linux Gaming machine GSync/Freesync compatible?;19;linux gaming: hardware;Available
q20;On your primary Linux gaming machine, how would you describe your display?;20;linux gaming: hardware;Available
q21;What brand of CPU do you use on your primary Linux gaming machine?;21;linux gaming: hardware;Available
q22;What kind of GPU do you use on your primary Linux gaming machine?;22;linux gaming: hardware;Available
q23;Do you want to provide any specific hardware details about your primary Linux gaming machine? Feel free to add anything below. (optional);23;linux gaming: hardware;Available
q24;What is your gamepad of choice on Linux? If you use several please choose the one you prefer using the most.;24;linux gaming: hardware;Available
q25;Explain why your favorite gamepad is... your favorite: (optional);25;linux gaming: hardware;Available
q26;What is the current distribution you are using on your main Linux Gaming machine? Since we cannot list all distributions in existence, you can add your own option if it is not listed there.;26;linux gaming: distro;Available
q27;How would you describe your distro hopping habits at the moment?;27;linux gaming: distro;Available
q28;Explain why you're using the distribution that you've currently chosen: (optional);28;linux gaming: distro;Available
q29;Have you ever used Dual Booting (having a Windows partition on your Linux machine) to play games in the past 5 years?;29;linux gaming: dual booting;Available
q30;How would you describe your CURRENT usage of Windows Dual Booting?;30;linux gaming: dual booting;Available
q31;Do you dualboot with other Linux distros, or use a virtual machine?;31;linux gaming: dual booting;Available
q32;Are you presently looking for a new GPU to purchase for your Linux Gaming machine, as soon as the market becomes more favorable?;32;linux gaming: GPU choice;Available
q33;What company would you want to buy your GPU from, and why?;33;linux gaming: GPU choice;Available
q34;Can you explain your above choice of GPU vendor? (optional);34;linux gaming: GPU choice;Available
q35;Of the below statements, which one(s) do you consider as key motivators to upgrade to a new GPU?;35;linux gaming: GPU choice;Available
q36;How would you describe your usage of Proton on Linux?;36;linux gaming: proton;Available
q37;What Proton versions are you currently using? (optional). If you do not use Proton, you can skip this question.;37;linux gaming: proton;Available
q38;How would you rate your experience with Proton? (optional) if you do not use Proton, you can skip this question.;38;linux gaming: proton;Available
q39;"Out of all the games you have on Steam, what percentage (%) of them work on Linux (whether native of through Proton) in your experience? Please answer with a single figure between 0 and 100. (Example answer: ""60"" would mean 60%) (optional) If you do not play on Steam you can skip this question.";39;linux gaming: proton;Available
q40;What is your viewpoint on Proton? Please select the statement that is the closest to your own opinion.;40;linux gaming: proton;Available
q41;Please describe your awareness of the following tools and services: [GameHub];41;linux gaming: awareness of tools;Available
q42;Please describe your awareness of the following tools and services: [Heroic Games Launcher];42;linux gaming: awareness of tools;Available
q43;Please describe your awareness of the following tools and services: [ProtonDB];43;linux gaming: awareness of tools;Available
q44;Please describe your awareness of the following tools and services: [Legendary];44;linux gaming: awareness of tools;Available
q45;Please describe your awareness of the following tools and services: [Lgogdownloader];45;linux gaming: awareness of tools;Available
q46;Please describe your awareness of the following tools and services: [Lutris];46;linux gaming: awareness of tools;Available
q47;Please describe your awareness of the following tools and services: [MiniGalaxy];47;linux gaming: awareness of tools;Available
q48;Please describe your awareness of the following tools and services: [Steam Link];48;linux gaming: awareness of tools;Available
q49;Please describe your awareness of the following tools and services: [Steam Tinker Launcher (STL)];49;linux gaming: awareness of tools;Available
q50;What is your awareness of the following piece of software related to Linux Gaming: [DXVK];50;linux gaming: awareness of software;Available
q51;What is your awareness of the following piece of software related to Linux Gaming: [FAudio];51;linux gaming: awareness of software;Available
q52;What is your awareness of the following piece of software related to Linux Gaming: [VKD3D];52;linux gaming: awareness of software;Available
q53;What is your awareness of the following piece of software related to Linux Gaming: [Zink];53;linux gaming: awareness of software;Available
q54;What is your awareness of the following manufacturers? [Librem];54;linux gaming: awareness of hardware vendors;Available
q55;What is your awareness of the following manufacturers? [Pine64];55;linux gaming: awareness of hardware vendors;Available
q56;What is your awareness of the following manufacturers? [System76];56;linux gaming: awareness of hardware vendors;Available
q57;What is your awareness of the following manufacturers? [Tuxedo Computers];57;linux gaming: awareness of hardware vendors;Available
q58;What is your view on FOSS? (Free and Open-Source Software);58;foss;Available
q59;How would you describe your frequency of games purchased on PC from the below stores in the past 6 months? (Not specifically for Linux games, in case you also play on Windows or Mac) [Epic Games Store];59;purchasing games: stores;Available
q60;How would you describe your frequency of games purchased on PC from the below stores in the past 6 months? (Not specifically for Linux games, in case you also play on Windows or Mac) [GOG];60;purchasing games: stores;Available
q61;How would you describe your frequency of games purchased on PC from the below stores in the past 6 months? (Not specifically for Linux games, in case you also play on Windows or Mac) [Humble Store];61;purchasing games: stores;Available
q62;How would you describe your frequency of games purchased on PC from the below stores in the past 6 months? (Not specifically for Linux games, in case you also play on Windows or Mac) [Itch.io];62;purchasing games: stores;Available
q63;How would you describe your frequency of games purchased on PC from the below stores in the past 6 months? (Not specifically for Linux games, in case you also play on Windows or Mac) [Origin];63;purchasing games: stores;Available
q64;How would you describe your frequency of games purchased on PC from the below stores in the past 6 months? (Not specifically for Linux games, in case you also play on Windows or Mac) [Steam];64;purchasing games: stores;Available
q65;How would you describe your frequency of games purchased on PC from the below stores in the past 6 months? (Not specifically for Linux games, in case you also play on Windows or Mac) [Third Party key resellers];65;purchasing games: stores;Available
q66;How would you describe your frequency of games purchased on PC from the below stores in the past 6 months? (Not specifically for Linux games, in case you also play on Windows or Mac) [Ubi Store];66;purchasing games: stores;Available
q67;How frequently do you consider Linux support when purchasing new PC games?;67;purchasing games: linux support;Available
q68;How many games do you own on Steam? (Regardless of the platform);68;purchasing games: number of games on steam;Available
q69;Before asking about your feeling regarding its future, how satisfied are you when it comes to playing games on Linux Right now?;69;linux gaming: satisfaction;Available
q70;Overall what is your general feeling about Linux Gaming's future?;70;looking forward;Available
q71;Do you think Apple's move to the ARM architecture will help expand the growth of gaming on Linux? (optional);71;looking forward;Available
q72;What do you think of the following predictions for 2021? [Epic Games Store will support Linux in 2021];72;looking forward;Available
q73;What do you think of the following predictions for 2021? [EAC (Easy Anti-Cheat) will be supported by Proton in 2021];73;looking forward;Available
q74;What do you think of the following predictions for 2021? [Nvidia will fully support Wayland in 2021];74;looking forward;Available
q75;What do you think of the following predictions for 2021? [There will be less and less native ports for Linux because of Proton];75;looking forward;Available
q76;What do you think of the following predictions for 2021? [Valve will release a new version of SteamOS in 2021];76;looking forward;Available
q77;What do you think of the following predictions for 2021? [Valve will release a new Linux-based device in 2021];77;looking forward;Available
q78;What do you think of the following predictions for 2021? [Proton's compatibility will be more visible in Steam in 2021];78;looking forward;Available
q79;What do you think of the following predictions for 2021? [Steam will come to ChromeOS and lead the growth of Linux Gaming in 2021];79;looking forward;Available
q80;What do you think of the following predictions for 2021? [Linux will gain market share on Steam in 2021];80;looking forward;Available
q81;Have you ever used any of the following Streaming Services?;81;cloud gaming;Available
q82;How is your overall experience with streaming services? If you have never used them you can skip this question. (optional);82;cloud gaming;Available
q83;What do you plan to do regarding Cloud Gaming/ Streaming services in the next year?;83;cloud gaming;Available
q84;What is your take on Streaming/Cloud Gaming?;84;cloud gaming;Available
q85;Please describe your experience so far with VR...;85;VR;Available
q86;What is your opinion of VR? [VR is too expensive and is a niche within a niche];86;VR;Available
q87;What is your opinion of VR? [VR is the future of gaming];87;VR;Available
q88;What is your opinion of VR? [VR is interesting, but the technology is still immature];88;VR;Available
q89;What is your opinion of VR? [VR is exciting tech-wise, but software is lacking];89;VR;Available
q90;What is your opinion of VR? [VR is helpful to push hardware forward];90;VR;Available
q91;Are you planning to get a VR headset in the next year?;91;VR;Available
q92;If you have a VR headset connected to a PC, do you use it with Linux?;92;VR;Available
q93;What did you think of the survey? (optional);93;survey feedback;Removed
q94;Anything else you'd like to share with us, regarding the survey or things you would like to add on top of your answers? This is the place to do so. (optional);94;survey feedback;Removed
q95;Would you like your answers to this survey to be made available? (We will remove all free response answers and anything considered sensitive information). If you accept, your answers will be compiled in a dataset that we will make available afterwards. This will make it possible for data analysts and other people to also better understand Linux Gamers as a whole. In our past surveys about 70% of users agreed to share their answers.;95;sharing consent;Available
